<?xml version="1.0" encoding="UTF-8"?>
<!DOCTYPE suite SYSTEM "http://testng.org/testng-1.0.dtd">
<suite guice-stage="DEVELOPMENT" verbose="0" name="Failed suite [Suite]" parallel="none">
  <parameter name="browserType" value="firefox"/>
  <parameter name="appURL" value="https://www.facebook.com/"/>
  <test name="Test(failed)" parallel="none">
    <classes>
      <class name="com.selenium.tests.NewTest">
        <methods>
          <include name="FirstTest"/>
          <include name="beforeTest"/>
        </methods>
      </class> <!-- com.selenium.tests.NewTest -->
    </classes>
  </test> <!-- Test(failed) -->
</suite> <!-- Failed suite [Suite] -->
